SpiFlash/sim/testbench.vcd
$date
	Sat Apr 08 15:58:19 2023
$end
$version
	Icarus Verilog
$end
$timescale
	1ps
$end
$scope module testbench $end
$var wire 1 ! io2 $end
$var wire 1 " io3 $end
$var wire 1 # spi_do $end
$var wire 1 $ tx_busy $end
$var wire 1 % spi_di $end
$var wire 1 & spi_csb $end
$var wire 1 ' spi_clk $end
$var wire 1 ( serial_tx $end
$var wire 1 ) serial_rx $end
$var wire 1 * rx_byte_ready $end
$var wire 8 + rx_byte [7:0] $end
$var reg 8 , byte4send [7:0] $end
$var reg 1 - clk $end
$var reg 1 . reset $end
$var reg 1 / send $end
$scope module P25Q32H_ $end
$var event 1 0 WRSR_Event $end
$var event 1 1 WRSR2_Event $end
$var event 1 2 WRCR_Event $end
$var event 1 3 Susp_Event $end
$var event 1 4 SE_4K_Event $end
$var event 1 5 Resume_Event $end
$var event 1 6 RST_Event $end
$var event 1 7 RST_EN_Event $end
$var event 1 8 PRSCUR_Event $end
$var event 1 9 PP_Event $end
$var event 1 : PE_Event $end
$var event 1 ; HDRST_Event $end
$var event 1 < ERSCUR_Event $end
$var event 1 = DEBUG_FSM_EVENT $end
$var event 1 > CE_Event $end
$var event 1 ? BE_Event $end
$var event 1 @ BE32K_Event $end
$var wire 1 A DPP_1XIO_Chk_W $end
$var wire 1 B Dis_WRSR $end
$var wire 1 C EPSUSP $end
$var wire 1 D Ers_Mode $end
$var wire 1 E FastRD_2XIO_Chk_W_H $end
$var wire 1 F FastRD_2XIO_Chk_W_L $end
$var wire 1 G FastRD_4XIO_Chk_W_H $end
$var wire 1 H FastRD_4XIO_Chk_W_L $end
$var wire 1 I HPM_RD $end
$var wire 1 J Low_Power_Mode $end
$var wire 1 K Norm_Array_Mode $end
$var wire 1 L PP_4XIO_Chk_W $end
$var wire 1 M PP_4XIO_Chk_W_H $end
$var wire 1 N PP_4XIO_Chk_W_L $end
$var wire 1 O Pgm_Mode $end
$var wire 1 P Read_1XIO_Chk_W $end
$var wire 1 Q Read_2XIO_Chk_W_H $end
$var wire 1 R Read_2XIO_Chk_W_L $end
$var wire 1 S Read_4XIO_Chk_W_H $end
$var wire 1 T Read_4XIO_Chk_W_L $end
$var wire 1 U Read_SHSL_W $end
$var wire 1 V SCLK_Chk_H $end
$var wire 1 W SCLK_Chk_L $end
$var wire 1 # SI $end
$var wire 1 " SIO3 $end
$var wire 1 X SIO3_IN_EN_W $end
$var wire 1 Y SI_IN_EN_W $end
$var wire 1 Z SO_IN_EN_W $end
$var wire 1 [ SRWD $end
$var wire 1 \ WP_EN $end
$var wire 1 ] WP_IN_EN_W $end
$var wire 1 ! WPb $end
$var wire 1 ^ sreg_hd_protect $end
$var wire 1 _ sreg_otp_lock $end
$var wire 1 ` sreg_powersupply_lock $end
$var wire 32 a tCLQV [31:0] $end
$var wire 1 b tDP_Chk_W $end
$var wire 32 c tESL [31:0] $end
$var wire 32 d tPSL [31:0] $end
$var wire 32 e tRDP [31:0] $end
$var wire 1 f tRES1_Chk_W $end
$var wire 32 g tW [31:0] $end
$var wire 1 h tWRCR_Chk_W $end
$var wire 1 i tWRSR_Chk_W $end
$var wire 32 j tSE [31:0] $end
$var wire 32 k tPP [31:0] $end
$var wire 32 l tCE [31:0] $end
$var wire 32 m tBP [31:0] $end
$var wire 32 n tBE32 [31:0] $end
$var wire 32 o tBE [31:0] $end
$var wire 1 p Write_SHSL $end
$var wire 1 q WP_B_INT $end
$var wire 1 r WIP $end
$var wire 1 s WEL $end
$var wire 1 t SREG_SUS2 $end
$var wire 1 u SREG_SUS1 $end
$var wire 2 v SREG_SRP [1:0] $end
$var wire 1 w SREG_QE $end
$var wire 1 x SREG_LB3 $end
$var wire 1 y SREG_LB2 $end
$var wire 1 z SREG_LB1 $end
$var wire 1 { SREG_CMP $end
$var wire 5 | SREG_BP [4:0] $end
$var wire 1 % SO $end
$var wire 1 } SIO3_EN $end
$var wire 1 ' SCLK $end
$var wire 1 ~ RESETB_INT $end
$var wire 1 !" ISCLK $end
$var wire 1 "" HOLD_B_INT $end
$var wire 32 #" Echip_Count [31:0] $end
$var wire 32 $" ERS_Count_SE [31:0] $end
$var wire 32 %" ERS_Count_BE32K [31:0] $end
$var wire 32 &" ERS_Count_BE [31:0] $end
$var wire 1 '" Dis_CE $end
$var wire 1 & CSb $end
$var wire 1 (" CS_INT $end
$var wire 1 )" CR_WPS $end
$var wire 1 *" CR_QP $end
$var wire 1 +" CR_HOLD_RESET $end
$var wire 2 ," CR_DRV [1:0] $end
$var reg 1 -" ASI_Mode $end
$var reg 22 ." Address [21:0] $end
$var reg 1 /" BE32K_Mode $end
$var reg 1 0" BE64K_Mode $end
$var reg 1 1" BE_Mode $end
$var reg 6 2" Block [5:0] $end
$var reg 16 3" Block0_SL_Reg [15:0] $end
$var reg 7 4" Block2 [6:0] $end
$var reg 16 5" Block63_SL_Reg [15:0] $end
$var reg 62 6" Block_Lock_Reg [62:1] $end
$var reg 1 7" BurstRead_Mode $end
$var reg 1 8" Byte_PGM_Mode $end
$var reg 1 9" CE_Mode $end
$var reg 8 :" CMD_BUS [7:0] $end
$var reg 1 ;" Chip_EN $end
$var reg 8 <" Control_Reg [7:0] $end
$var reg 1 =" DPP_1XIO_Chk $end
$var reg 1 >" DPP_1XIO_Load $end
$var reg 1 ?" DPP_1XIO_Mode $end
$var reg 1 @" DP_Mode $end
$var reg 1 A" DREMS_Mode $end
$var reg 24 B" Data00 [23:0] $end
$var reg 24 C" DataFF [23:0] $end
$var reg 1 D" During_Enter_DP $end
$var reg 1 E" During_RST_REC $end
$var reg 1 F" During_Susp_Wait $end
$var reg 1 G" EN2XIO_Read_Mode $end
$var reg 1 H" EN4XIO_Read_Mode $end
$var reg 1 I" EN_Burst $end
$var reg 1 J" ERSCUR_Mode $end
$var reg 1 K" ERS_CLK $end
$var reg 64 L" ERS_Time [63:0] $end
$var reg 1 M" Fast4x_Mode $end
$var reg 1 N" FastRD_1XIO_Mode $end
$var reg 1 O" FastRD_2XIO_Chk $end
$var reg 1 P" FastRD_2XIO_Mode $end
$var reg 1 Q" FastRD_4XIO_Chk $end
$var reg 1 R" FastRD_4XIO_Mode $end
$var reg 1 S" HOLD_OUT_B $end
$var reg 8 T" M7_0 [7:0] $end
$var reg 1 U" OctalRead_Mode $end
$var reg 1 V" PE_Mode $end
$var reg 1 W" PGM_CLK $end
$var reg 1 X" PP_1XIO_Mode $end
$var reg 1 Y" PP_4XIO_Chk $end
$var reg 1 Z" PP_4XIO_Load $end
$var reg 1 [" PP_4XIO_Mode $end
$var reg 1 \" PRSCUR_Mode $end
$var reg 14 ]" Page [13:0] $end
$var reg 2 ^" Param_dummy_clock [1:0] $end
$var reg 2 _" Param_wrap_length [1:0] $end
$var reg 1 `" QPI_Mode $end
$var reg 1 a" QPP_1XIO_Mode $end
$var reg 1 b" QREMS_Mode $end
$var reg 1 c" RDCR_Mode $end
$var reg 1 d" RDID_Mode $end
$var reg 1 e" RDP_EN $end
$var reg 1 f" RDSCUR_Mode $end
$var reg 1 g" RDSR2_Mode $end
$var reg 1 h" RDSR_Mode $end
$var reg 1 i" READ2X_Mode $end
$var reg 1 j" READ4X_Mode $end
$var reg 1 k" REMS_Mode $end
$var reg 1 l" RES_Mode $end
$var reg 8 m" RSEN_SI_Reg [7:0] $end
$var reg 1 n" RST_CMD_EN $end
$var reg 1 o" RUID_Mode $end
$var reg 1 p" Read_1XIO_Chk $end
$var reg 1 q" Read_1XIO_Mode $end
$var reg 1 r" Read_2XIO_Chk $end
$var reg 1 s" Read_2XIO_Mode $end
$var reg 1 t" Read_4XIO_Chk $end
$var reg 1 u" Read_4XIO_Mode $end
$var reg 1 v" Read_Mode $end
$var reg 1 w" Read_SHSL $end
$var reg 1 x" Resume_Trig $end
$var reg 1 y" SCLK_EN $end
$var reg 1 z" SE_4K_Mode $end
$var reg 1 {" SFDP_Mode $end
$var reg 1 |" SIO0_Out_Reg $end
$var reg 1 }" SIO0_Reg $end
$var reg 1 ~" SIO1_Out_Reg $end
$var reg 1 !# SIO1_Reg $end
$var reg 1 "# SIO2_Out_Reg $end
$var reg 1 ## SIO2_Reg $end
$var reg 1 $# SIO3_IN_EN $end
$var reg 1 %# SIO3_OUT_EN $end
$var reg 1 &# SIO3_Out_Reg $end
$var reg 1 '# SIO3_Reg $end
$var reg 1 (# SI_IN_EN $end
$var reg 1 )# SI_OUT_EN $end
$var reg 24 *# SI_Reg [23:0] $end
$var reg 1 +# SO_IN_EN $end
$var reg 1 ,# SO_OUT_EN $end
$var reg 3 -# STATE [2:0] $end
$var reg 10 .# Sector [9:0] $end
$var reg 1 /# Set_2XIO_Enhance_Mode $end
$var reg 1 0# Set_4XIO_Enhance_Mode $end
$var reg 1 1# Set_QPI_Mode $end
$var reg 16 2# Status_Reg [15:0] $end
$var reg 1 3# Susp_Ready $end
$var reg 1 4# Susp_Trig $end
$var reg 16 5# VStatus_Reg [15:0] $end
$var reg 1 6# W4Read_Mode $end
$var reg 1 7# WP_IN_EN $end
$var reg 1 8# WP_OUT_EN $end
$var reg 1 9# WR2Susp $end
$var reg 1 :# WRCR_Mode $end
$var reg 1 ;# WRSR2_Mode $end
$var reg 1 <# WRSR_Mode $end
$var reg 1 =# WordRead_Mode $end
$var reg 1 ># tCRDP_Check_EN $end
$var reg 1 ?# tDP_Chk $end
$var reg 1 @# tRES1_Chk $end
$var reg 1 A# tWRCR_Chk $end
$var reg 1 B# tWRSR_Chk $end
$var reg 1 C# vwrite_enable_flag $end
$var integer 32 D# AC_Check_File [31:0] $end
$var integer 32 E# Bit [31:0] $end
$var integer 32 F# Bit_Tmp [31:0] $end
$var integer 32 G# Burst_Length [31:0] $end
$var integer 32 H# End_Add [31:0] $end
$var integer 32 I# Start_Add [31:0] $end
$var real 1 J# T_CS_N $end
$var real 1 K# T_CS_P $end
$var real 1 L# T_HOLD_N $end
$var real 1 M# T_HOLD_P $end
$var real 1 N# T_SCLK_N $end
$var real 1 O# T_SCLK_P $end
$var real 1 P# T_SI $end
$var real 1 Q# T_SIO3 $end
$var real 1 R# T_SIO3_N $end
$var real 1 S# T_SIO3_P $end
$var real 1 T# T_SO $end
$var real 1 U# T_WP $end
$var real 1 V# T_WP_N $end
$var real 1 W# T_WP_P $end
$var integer 32 X# i [31:0] $end
$var integer 32 Y# j [31:0] $end
$var integer 32 Z# tWRCR [31:0] $end
$var integer 32 [# tWRSR [31:0] $end
$scope function add_in_erase $end
$var reg 22 \# Address [21:0] $end
$var reg 1 ]# add_in_erase $end
$upscope $end
$scope function write_protect $end
$var reg 22 ^# Address [21:0] $end
$var reg 6 _# Block [5:0] $end
$var reg 4 `# Sector_Name [3:0] $end
$var reg 1 a# write_protect $end
$upscope $end
$scope begin disable_release_from_dp_cmd $end
$upscope $end
$scope begin hd_reset $end
$upscope $end
$scope begin memory_initialize $end
$upscope $end
$scope begin page_program_mode $end
$upscope $end
$scope begin program_otp $end
$upscope $end
$scope begin read_function $end
$upscope $end
$scope begin release_from_dp $end
$upscope $end
$scope begin rtimeout_cnt $end
$upscope $end
$scope begin stimeout_cnt $end
$upscope $end
$scope task block_erase $end
$var integer 32 b# End_Add [31:0] $end
$var integer 32 c# Start_Add [31:0] $end
$var integer 32 d# i [31:0] $end
$var integer 32 e# i_tmp [31:0] $end
$scope begin wpb_checker_be $end
$upscope $end
$upscope $end
$scope task block_erase_32k $end
$var integer 32 f# End_Add [31:0] $end
$var integer 32 g# Start_Add [31:0] $end
$var integer 32 h# i [31:0] $end
$var integer 32 i# i_tmp [31:0] $end
$scope begin wpb_checker_be_32k $end
$upscope $end
$upscope $end
$scope task chip_erase $end
$var reg 22 j# Address_Int [21:0] $end
$var integer 32 k# i [31:0] $end
$scope begin wpb_checker_ce $end
$upscope $end
$upscope $end
$scope task dual_read_electronic_manufacturer_device_id $end
$var reg 16 l# Dummy_ID [15:0] $end
$var integer 32 m# Dummy_Count [31:0] $end
$upscope $end
$scope task dummy_cycle $end
$var reg 32 n# Cnum [31:0] $end
$upscope $end
$scope task er_timer $end
$upscope $end
$scope task erase_secur_register $end
$var reg 10 o# add_cut [21:12] $end
$var integer 32 p# i [31:0] $end
$var integer 32 q# i_tmp [31:0] $end
$scope begin wpb_checker_be $end
$upscope $end
$upscope $end
$scope task fastread_1xio $end
$var reg 8 r# OUT_Buf [7:0] $end
$var integer 32 s# Dummy_Count [31:0] $end
$upscope $end
$scope task fastread_2xio $end
$var reg 8 t# OUT_Buf [7:0] $end
$var integer 32 u# Dummy_Count [31:0] $end
$upscope $end
$scope task fastread_4xio $end
$var reg 8 v# OUT_Buf [7:0] $end
$var integer 32 w# Dummy_Count [31:0] $end
$upscope $end
$scope task global_block_lock $end
$upscope $end
$scope task global_block_unlock $end
$upscope $end
$scope task load_address $end
$var reg 22 x# Address [21:0] $end
$upscope $end
$scope task otp_program $end
$var reg 22 y# Address [21:0] $end
$var reg 10 z# Offset [9:0] $end
$var integer 32 {# Dummy_Count [31:0] $end
$var integer 32 |# Tmp_Int [31:0] $end
$var integer 32 }# i [31:0] $end
$upscope $end
$scope task page_erase $end
$var integer 32 ~# End_Add [31:0] $end
$var integer 32 !$ Start_Add [31:0] $end
$var integer 32 "$ i [31:0] $end
$var integer 32 #$ i_tmp [31:0] $end
$scope begin wpb_checker_se $end
$upscope $end
$upscope $end
$scope task page_program $end
$var reg 22 $$ Address [21:0] $end
$var reg 10 %$ Offset [9:0] $end
$var integer 32 &$ Dummy_Count [31:0] $end
$var integer 32 '$ Tmp_Int [31:0] $end
$var integer 32 ($ i [31:0] $end
$upscope $end
$scope task pg_timer $end
$upscope $end
$scope task quad_read_electronic_manufacturer_device_id $end
$var reg 16 )$ Dummy_ID [15:0] $end
$var integer 32 *$ Dummy_Count [31:0] $end
$upscope $end
$scope task read_1xio $end
$var reg 8 +$ OUT_Buf [7:0] $end
$var integer 32 ,$ Dummy_Count [31:0] $end
$upscope $end
$scope task read_2xio $end
$var reg 8 -$ OUT_Buf [7:0] $end
$var integer 32 .$ Dummy_Count [31:0] $end
$upscope $end
$scope task read_4xio $end
$var reg 4 /$ Addr_E3H [3:0] $end
$var reg 1 0$ Addr_E7H $end
$var reg 8 1$ OUT_Buf [7:0] $end
$var integer 32 2$ Dummy_Count [31:0] $end
$var integer 32 3$ Num_Cycles [31:0] $end
$upscope $end
$scope task read_Secur_Register $end
$var reg 8 4$ OUT_Buf [7:0] $end
$var integer 32 5$ Dummy_Count [31:0] $end
$upscope $end
$scope task read_array $end
$var reg 22 6$ Address [21:0] $end
$var reg 8 7$ OUT_Buf [7:0] $end
$var reg 10 8$ Secur_Add [9:0] $end
$upscope $end
$scope task read_block_lock $end
$var reg 6 9$ block_name [5:0] $end
$var reg 8 :$ lock_stat [7:0] $end
$var reg 4 ;$ sector_name [3:0] $end
$var integer 32 <$ Dummy_Count [31:0] $end
$upscope $end
$scope task read_cr $end
$var reg 8 =$ CR [7:0] $end
$var integer 32 >$ Dummy_Count [31:0] $end
$upscope $end
$scope task read_electronic_id $end
$var reg 8 ?$ Dummy_ID [7:0] $end
$upscope $end
$scope task read_electronic_manufacturer_device_id $end
$var reg 16 @$ Dummy_ID [15:0] $end
$var integer 32 A$ Dummy_Count [31:0] $end
$upscope $end
$scope task read_id $end
$var reg 24 B$ Dummy_ID [23:0] $end
$var integer 32 C$ Dummy_Count [31:0] $end
$upscope $end
$scope task read_status $end
$var reg 8 D$ Status_Reg_Int [7:0] $end
$var integer 32 E$ Dummy_Count [31:0] $end
$upscope $end
$scope task read_status_2 $end
$var reg 8 F$ Status_Reg_Int [7:0] $end
$var integer 32 G$ Dummy_Count [31:0] $end
$upscope $end
$scope task read_uuid $end
$var reg 128 H$ Dummy_ID [127:0] $end
$upscope $end
$scope task reset_sm $end
$upscope $end
$scope task resume_write $end
$upscope $end
$scope task sector_erase_4k $end
$var integer 32 I$ End_Add [31:0] $end
$var integer 32 J$ Start_Add [31:0] $end
$var integer 32 K$ i [31:0] $end
$var integer 32 L$ i_tmp [31:0] $end
$scope begin wpb_checker_se $end
$upscope $end
$upscope $end
$scope task single_block_lock $end
$var reg 6 M$ block_name [5:0] $end
$var reg 4 N$ sector_name [3:0] $end
$upscope $end
$scope task single_block_unlock $end
$var reg 6 O$ block_name [5:0] $end
$var reg 4 P$ sector_name [3:0] $end
$upscope $end
$scope task suspend_write $end
$upscope $end
$scope task update_array $end
$var reg 22 Q$ Address [21:0] $end
$var integer 32 R$ Dummy_Count [31:0] $end
$var integer 32 S$ i [31:0] $end
$var integer 32 T$ i_tmp [31:0] $end
$var integer 32 U$ program_time [31:0] $end
$scope begin wpb_checker_pg $end
$upscope $end
$upscope $end
$scope task update_otp_array $end
$var reg 22 V$ Address [21:0] $end
$var integer 32 W$ Dummy_Count [31:0] $end
$var integer 32 X$ i [31:0] $end
$var integer 32 Y$ i_tmp [31:0] $end
$var integer 32 Z$ program_time [31:0] $end
$scope begin wpb_checker_pg $end
$upscope $end
$upscope $end
$scope task write_control $end
$var reg 8 [$ Control_Reg_Up [7:0] $end
$upscope $end
$scope task write_disable $end
$upscope $end
$scope task write_enable $end
$upscope $end
$scope task write_status $end
$var reg 8 \$ Status_Reg_Up [7:0] $end
$upscope $end
$scope task write_status_2 $end
$var reg 8 ]$ Status_Reg_Up [7:0] $end
$upscope $end
$upscope $end
$scope module sr2spi $end
$var wire 1 - clk $end
$var wire 1 . reset $end
$var wire 8 ^$ sbyte [7:0] $end
$var wire 1 % spi_di $end
$var wire 1 _$ send_time $end
$var wire 1 `$ rxf $end
$var wire 1 ( rx $end
$var wire 1 a$ onum_bits $end
$var wire 1 b$ num_bits10 $end
$var wire 1 c$ middle $end
$var reg 1 d$ busy $end
$var reg 16 e$ cnt [15:0] $end
$var reg 16 f$ cnt_end_csb [15:0] $end
$var reg 1 g$ csb $end
$var reg 2 h$ csbfix [1:0] $end
$var reg 1 i$ endpkt $end
$var reg 1 j$ final_send_imp $end
$var reg 2 k$ flag [1:0] $end
$var reg 4 l$ num_bits [3:0] $end
$var reg 1 m$ rbyte_ready $end
$var reg 8 n$ rx_byte [7:0] $end
$var reg 16 o$ send_cnt [15:0] $end
$var reg 1 p$ send_imp $end
$var reg 4 q$ send_num [3:0] $end
$var reg 9 r$ send_reg [8:0] $end
$var reg 8 s$ shift_reg [7:0] $end
$var reg 2 t$ shr [1:0] $end
$var reg 1 ' spi_clk $end
$var reg 2 u$ spi_clk_r [1:0] $end
$var reg 1 & spi_csb $end
$var reg 8 v$ spi_data [7:0] $end
$var reg 1 w$ spi_do $end
$var reg 1 ) tx $end
$upscope $end
$scope module sr_inst $end
$var wire 1 - clk100 $end
$var wire 1 . reset $end
$var wire 1 ) rx $end
$var wire 8 x$ sbyte [7:0] $end
$var wire 1 / send $end
$var wire 1 y$ send_time $end
$var wire 1 z$ rxf $end
$var reg 1 $ busy $end
$var reg 16 {$ cnt [15:0] $end
$var reg 2 |$ flag [1:0] $end
$var reg 4 }$ num_bits [3:0] $end
$var reg 1 * rbyte_ready $end
$var reg 8 ~$ rx_byte [7:0] $end
$var reg 16 !% send_cnt [15:0] $end
$var reg 4 "% send_num [3:0] $end
$var reg 9 #% send_reg [8:0] $end
$var reg 8 $% shift_reg [7:0] $end
$var reg 2 %% shr [1:0] $end
$var reg 1 ( tx $end
$upscope $end
$scope task send_uart $end
$var reg 8 &% txdata [7:0] $end
$upscope $end
$upscope $end
$enddefinitions $end
#0
$dumpvars
bx &%
bx %%
b0 $%
b111111111 #%
b1010 "%
b0 !%
b0 ~$
b0 }$
b0 |$
b0 {$
xz$
0y$
b0 x$
xw$
bx v$
bx u$
bx t$
b0 s$
b111111111 r$
b1010 q$
0p$
b0 o$
bx n$
xm$
b1010 l$
b0 k$
xj$
0i$
b0 h$
1g$
bx f$
bx e$
0d$
xc$
1b$
0a$
x`$
0_$
bx ^$
bx ]$
bx \$
bx [$
bx Z$
bx Y$
bx X$
bx W$
bx V$
bx U$
bx T$
bx S$
bx R$
bx Q$
bx P$
bx O$
bx N$
bx M$
bx L$
bx K$
bx J$
bx I$
bx H$
bx G$
bx F$
bx E$
bx D$
bx C$
bx B$
bx A$
bx @$
bx ?$
bx >$
bx =$
bx <$
bx ;$
bx :$
bx 9$
bx 8$
bx 7$
bx 6$
bx 5$
bx 4$
bx 3$
bx 2$
bx 1$
x0$
bx /$
bx .$
bx -$
bx ,$
bx +$
bx *$
bx )$
bx ($
bx '$
bx &$
bx %$
bx $$
bx #$
bx "$
bx !$
bx ~#
bx }#
bx |#
bx {#
bx z#
bx y#
bx x#
bx w#
bx v#
bx u#
bx t#
bx s#
bx r#
bx q#
bx p#
bx o#
bx n#
bx m#
bx l#
bx k#
bx j#
bx i#
bx h#
bx g#
bx f#
bx e#
bx d#
bx c#
bx b#
xa#
bx `#
bx _#
bx ^#
x]#
bx \#
bx [#
bx Z#
b0 Y#
b0 X#
r0 W#
r0 V#
r0 U#
r0 T#
r0 S#
r0 R#
r0 Q#
r0 P#
r0 O#
r0 N#
r0 M#
r0 L#
r0 K#
r0 J#
b0 I#
b0 H#
b1000 G#
b0 F#
b0 E#
b10 D#
0C#
0B#
0A#
0@#
0?#
1>#
0=#
0<#
0;#
0:#
09#
08#
07#
06#
b0 5#
04#
13#
b0 2#
01#
00#
0/#
b0 .#
b0 -#
0,#
0+#
bx *#
0)#
0(#
1'#
1&#
0%#
0$#
1##
1"#
1!#
1~"
1}"
1|"
0{"
0z"
1y"
0x"
0w"
0v"
0u"
0t"
0s"
0r"
0q"
0p"
0o"
0n"
b0 m"
0l"
0k"
0j"
0i"
0h"
0g"
0f"
1e"
0d"
0c"
0b"
0a"
0`"
b0 _"
b0 ^"
b0 ]"
0\"
0["
0Z"
0Y"
0X"
0W"
0V"
0U"
b0 T"
1S"
0R"
0Q"
0P"
0O"
0N"
0M"
bx L"
0K"
0J"
0I"
0H"
0G"
0F"
0E"
0D"
b111111111111111111111111 C"
b0 B"
0A"
0@"
0?"
0>"
0="
b0 <"
0;"
b0 :"
09"
08"
07"
b11111111111111111111111111111111111111111111111111111111111111 6"
b1111111111111111 5"
b0 4"
b1111111111111111 3"
b0 2"
01"
00"
0/"
b0 ."
0-"
b0 ,"
0+"
0*"
0)"
1("
0'"
b1111000 &"
b1111000 %"
b1111000 $"
b0 #"
1""
0!"
1~
1}
b0 |
0{
0z
0y
0x
0w
b0 v
0u
0t
0s
0r
1q
1p
b10110111000110110000000 o
b10110111000110110000000 n
b111101000010010000000 m
b110 l
b111101000010010000000 k
b10110111000110110000000 j
0i
0h
b101101110001101100000000 g
0f
b1111101000000 e
b111010100110000 d
b111010100110000 c
0b
b110 a
0`
0_
0^
0]
0\
0[
0Z
0Y
0X
0W
0V
0U
0T
0S
0R
0Q
0P
0O
0N
0M
0L
1K
0J
0I
0H
0G
0F
0E
0D
0C
0B
0A
1@
1?
1>
1=
1<
1;
1:
19
18
17
16
15
14
13
12
11
10
0/
1.
0-
b0 ,
b0 +
0*
1)
1(
0'
1&
z%
0$
x#
1"
1!
$end
#5000
bx1 %%
bx1 t$
0j$
b1 h$
1i$
0c$
b0 e$
xp$
bx0 u$
b1 k$
0m$
1-
#8000
x&#
x"#
x~"
x|"
x'#
x##
x!#
x}"
#10000
1;"
0-
#15000
1`$
1z$
1m$
b11 k$
0p$
b0 u$
1j$
b11 h$
b11 t$
b11 %%
1-
#20000
0-
#25000
r25 P#
0j$
1#
1w$
1p$
0m$
1-
#30000
0-
#35000
0p$
1-
#40000
0-
#45000
1-
#50000
0-
0.
#55000
b1 {$
b1 !%
b1 o$
1-
#60000
0-
#65000
b10 o$
b10 !%
b10 {$
1-
#70000
0-
#75000
b11 {$
b11 !%
b11 o$
1-
#80000
0-
#85000
b100 o$
b100 !%
b100 {$
1-
#90000
0-
#95000
b101 {$
b101 !%
b101 o$
1-
#100000
0-
b10101011 &%
#105000
b110 o$
b110 !%
b110 {$
1-
#110000
0-
#115000
0(
1$
b111 {$
b0 "%
b110101010 #%
b0 !%
b111 o$
1/
b11010101 ,
b11010101 x$
1-
#120000
0-
#125000
b1000 o$
b1 !%
b1000 {$
b10 t$
b0 &%
0/
1-
#130000
0-
#135000
0`$
b1001 {$
b10 !%
b1001 o$
b0 t$
1-
#140000
0-
#145000
r145 P#
b1010 o$
b11 !%
b1010 {$
0#
0w$
0b$
b0 l$
1-
#150000
0-
#155000
b1011 {$
b100 !%
b1011 o$
b10 k$
b1 e$
0i$
b0 f$
1-
#160000
0-
#165000
b1100 o$
b101 !%
b1100 {$
b10 e$
b0 k$
1-
#170000
0-
#175000
b1101 {$
b110 !%
b1101 o$
b11 e$
1-
#180000
0-
#185000
b1110 o$
b111 !%
b1110 {$
b100 e$
1-
#190000
0-
#195000
b1111 {$
b1000 !%
b1111 o$
b101 e$
1-
#200000
0-
#205000
b10000 o$
b1001 !%
b10000 {$
b110 e$
1-
#210000
0-
#215000
b10001 {$
b1010 !%
b10001 o$
b111 e$
1-
#220000
0-
#225000
b10010 o$
b1011 !%
b10010 {$
b1000 e$
1-
#230000
0-
#235000
b10011 {$
b1100 !%
b10011 o$
b1001 e$
1-
#240000
0-
#245000
b10100 o$
b1101 !%
b10100 {$
b1010 e$
1-
#250000
0-
#255000
b10101 {$
b1110 !%
b10101 o$
b1011 e$
1-
#260000
0-
#265000
b10110 o$
b1111 !%
b10110 {$
b1100 e$
1-
#270000
0-
#275000
b10111 {$
b10000 !%
b10111 o$
b1101 e$
1-
#280000
0-
#285000
b11000 o$
b10001 !%
b11000 {$
b1110 e$
1-
#290000
0-
#295000
b11001 {$
b10010 !%
b11001 o$
b1111 e$
1-
#300000
0-
#305000
b11010 o$
b10011 !%
b11010 {$
b10000 e$
1-
#310000
0-
#315000
b11011 {$
b10100 !%
b11011 o$
b10001 e$
1-
#320000
0-
#325000
b11100 o$
b10101 !%
b11100 {$
b10010 e$
1-
#330000
0-
#335000
b11101 {$
b10110 !%
b11101 o$
b10011 e$
1-
#340000
0-
#345000
b11110 o$
b10111 !%
b11110 {$
b10100 e$
1-
#350000
0-
#355000
b11111 {$
b11000 !%
b11111 o$
b10101 e$
1-
#360000
0-
#365000
b100000 o$
b11001 !%
b100000 {$
b10110 e$
1-
#370000
0-
#375000
b100001 {$
b10000000 $%
b11010 !%
b100001 o$
b10111 e$
1-
#380000
0-
#385000
b100010 o$
b11011 !%
b100010 {$
b11000 e$
1-
#390000
0-
#395000
b100011 {$
b11100 !%
b100011 o$
b11001 e$
1-
#400000
0-
#405000
b100100 o$
b11101 !%
b100100 {$
b11010 e$
1-
#410000
0-
#415000
b100101 {$
b11110 !%
b100101 o$
b11011 e$
1-
#420000
0-
#425000
b100110 o$
b11111 !%
b100110 {$
b11100 e$
1-
#430000
0-
#435000
b100111 {$
b100000 !%
b100111 o$
b11101 e$
1-
#440000
0-
#445000
b101000 o$
b100001 !%
b101000 {$
b11110 e$
1-
#450000
0-
#455000
b101001 {$
b100010 !%
b101001 o$
b11111 e$
1-
#460000
0-
#465000
b101010 o$
b100011 !%
b101010 {$
1c$
b100000 e$
1-
#470000
0-
#475000
1a$
b101011 {$
b100100 !%
b101011 o$
b1 l$
0c$
b100001 e$
1-
#480000
0-
#485000
1Y
1(#
0("
1V
r485 J#
b101100 o$
b100101 !%
b101100 {$
b100010 e$
0&
0g$
1-
#490000
0-
#495000
b101101 {$
b100110 !%
b101101 o$
b100011 e$
b10 h$
1-
#500000
0-
#505000
b101110 o$
b100111 !%
b101110 {$
b0 h$
b100100 e$
1-
#510000
0-
#515000
b101111 {$
b101000 !%
b101111 o$
b100101 e$
1-
#520000
0-
#525000
b110000 o$
b101001 !%
b110000 {$
b100110 e$
1-
#530000
0-
#535000
b110001 {$
b101010 !%
b110001 o$
b100111 e$
1-
#540000
0-
#545000
b110010 o$
b101011 !%
b110010 {$
b101000 e$
1-
#550000
0-
#555000
b110011 {$
b101100 !%
b110011 o$
b101001 e$
1-
#560000
0-
#565000
b110100 o$
b101101 !%
b110100 {$
b101010 e$
1-
#570000
0-
#575000
b110101 {$
b101110 !%
b110101 o$
b101011 e$
1-
#580000
0-
#585000
b110110 o$
b101111 !%
b110110 {$
b101100 e$
1-
#590000
0-
#595000
b110111 {$
b110000 !%
b110111 o$
b101101 e$
1-
#600000
0-
#605000
b111000 o$
b110001 !%
b111000 {$
b101110 e$
1-
#610000
0-
#615000
b111001 {$
b110010 !%
b111001 o$
b101111 e$
1-
#620000
0-
#625000
b111010 o$
b110011 !%
b111010 {$
b110000 e$
1-
#630000
0-
#635000
b111011 {$
b110100 !%
b111011 o$
b110001 e$
1-
#640000
0-
#645000
b111100 o$
b110101 !%
b111100 {$
b110010 e$
1-
#650000
0-
#655000
b111101 {$
b110110 !%
b111101 o$
b110011 e$
1-
#660000
0-
#665000
b111110 o$
b110111 !%
b111110 {$
b110100 e$
1-
#670000
0-
#675000
b111111 {$
b111000 !%
b111111 o$
b110101 e$
1-
#680000
0-
#685000
1_$
b1000000 o$
b111001 !%
b1000000 {$
b110110 e$
1-
#690000
0-
#695000
b0 {$
b1 }$
b111010 !%
0_$
b0 o$
b110111 e$
1-
#700000
0-
#705000
b1 o$
b111011 !%
b1 {$
b111000 e$
1-
#710000
0-
#715000
b10 {$
b111100 !%
b10 o$
b111001 e$
1-
#720000
0-
#725000
b11 o$
b111101 !%
b11 {$
b111010 e$
1-
#730000
0-
#735000
b100 {$
b111110 !%
b100 o$
b111011 e$
1-
#740000
0-
#745000
b101 o$
b111111 !%
b101 {$
b111100 e$
1-
#750000
0-
#755000
b110 {$
1y$
b1000000 !%
b110 o$
b111101 e$
1-
#760000
0-
#765000
1(
b111 o$
b1 "%
b111010101 #%
0y$
b0 !%
b111 {$
b111110 e$
1-
